<svg width="41" height="29" viewBox="0 0 41 29" fill="none" xmlns="http://www.w3.org/2000/svg">
<path fill-rule="evenodd" clip-rule="evenodd" d="M37.8736 3.03035C38.4792 3.61836 38.9156 4.35016 39.1393 5.15286C40.4275 10.1873 40.1298 18.1384 39.1643 23.3671C38.9406 24.1698 38.5043 24.9016 37.8987 25.4896C37.2931 26.0777 36.5394 26.5014 35.7127 26.7186C32.6862 27.52 20.5053 27.52 20.5053 27.52C20.5053 27.52 8.32437 27.52 5.2979 26.7186C4.47119 26.5014 3.71751 26.0777 3.11191 25.4896C2.50631 24.9016 2.06993 24.1698 1.84623 23.3671C0.550596 18.3546 0.905769 10.3986 1.82121 5.17714C2.04492 4.37444 2.4813 3.64265 3.0869 3.05464C3.69249 2.46663 4.44618 2.04292 5.27289 1.82571C8.29936 1.02429 20.4803 1 20.4803 1C20.4803 1 32.6612 1 35.6877 1.80143C36.5144 2.01864 37.2681 2.44234 37.8736 3.03035ZM26.7084 14.26L16.6035 19.9428V8.57713L26.7084 14.26Z" stroke="#CA3132"/>
</svg>
